[gd_resource type="AnimatedTexture" load_steps=10 format=2]

[ext_resource path="res://Textures/Water/Water-export9.png" type="Texture" id=1]
[ext_resource path="res://Textures/Water/Water-export7.png" type="Texture" id=2]
[ext_resource path="res://Textures/Water/Water-export1.png" type="Texture" id=3]
[ext_resource path="res://Textures/Water/Water-export3.png" type="Texture" id=4]
[ext_resource path="res://Textures/Water/Water-export4.png" type="Texture" id=5]
[ext_resource path="res://Textures/Water/Water-export6.png" type="Texture" id=6]
[ext_resource path="res://Textures/Water/Water-export8.png" type="Texture" id=7]
[ext_resource path="res://Textures/Water/Water-export2.png" type="Texture" id=8]
[ext_resource path="res://Textures/Water/Water-export5.png" type="Texture" id=9]

[resource]
flags = 19
frames = 9
fps = 15.0
frame_0/texture = ExtResource( 3 )
frame_1/texture = ExtResource( 8 )
frame_1/delay_sec = 0.0
frame_2/texture = ExtResource( 4 )
frame_2/delay_sec = 0.0
frame_3/texture = ExtResource( 5 )
frame_3/delay_sec = 0.0
frame_4/texture = ExtResource( 9 )
frame_4/delay_sec = 0.0
frame_5/texture = ExtResource( 6 )
frame_5/delay_sec = 0.0
frame_6/texture = ExtResource( 2 )
frame_6/delay_sec = 0.0
frame_7/texture = ExtResource( 7 )
frame_7/delay_sec = 0.0
frame_8/texture = ExtResource( 1 )
frame_8/delay_sec = 0.0
