[gd_resource type="AudioBusLayout" load_steps=5 format=2]

[sub_resource type="AudioEffectCompressor" id=1]
resource_name = "Compressor"
threshold = -2.0
ratio = 2.0

[sub_resource type="AudioEffectCompressor" id=2]
resource_name = "Compressor"
threshold = -4.0
ratio = 2.0
release_ms = 120.0

[sub_resource type="AudioEffectFilter" id=3]
resource_name = "Filter"
cutoff_hz = 956.0
resonance = 0.8
db = 2

[sub_resource type="AudioEffectChorus" id=4]
resource_name = "Chorus"
dry = 0.0
voice/1/delay_ms = 12.2
voice/1/rate_hz = 1.4
voice/1/depth_ms = 1.12
voice/1/level_db = 2.0
voice/2/delay_ms = 13.46
voice/2/depth_ms = 1.13
voice/2/level_db = 2.0

[resource]
bus/0/effect/0/effect = SubResource( 1 )
bus/0/effect/0/enabled = true
bus/1/name = "Sfx"
bus/1/solo = false
bus/1/mute = false
bus/1/bypass_fx = false
bus/1/volume_db = 0.0
bus/1/send = "Master"
bus/1/effect/0/effect = SubResource( 2 )
bus/1/effect/0/enabled = true
bus/2/name = "Music"
bus/2/solo = false
bus/2/mute = false
bus/2/bypass_fx = false
bus/2/volume_db = 0.0
bus/2/send = "Master"
bus/2/effect/0/effect = SubResource( 3 )
bus/2/effect/0/enabled = false
bus/2/effect/1/effect = SubResource( 4 )
bus/2/effect/1/enabled = false
bus/3/name = "Voices"
bus/3/solo = false
bus/3/mute = false
bus/3/bypass_fx = false
bus/3/volume_db = 0.0
bus/3/send = "Master"
