<?xml version="1.0" encoding="UTF-8" standalone="no"?>
<!-- Created with Inkscape (http://www.inkscape.org/) -->

<svg
   xmlns:dc="http://purl.org/dc/elements/1.1/"
   xmlns:cc="http://creativecommons.org/ns#"
   xmlns:rdf="http://www.w3.org/1999/02/22-rdf-syntax-ns#"
   xmlns:svg="http://www.w3.org/2000/svg"
   xmlns="http://www.w3.org/2000/svg"
   xmlns:sodipodi="http://sodipodi.sourceforge.net/DTD/sodipodi-0.dtd"
   xmlns:inkscape="http://www.inkscape.org/namespaces/inkscape"
   width="64mm"
   height="64mm"
   viewBox="0 0 64 64"
   version="1.1"
   id="svg8"
   inkscape:version="0.92.3 (2405546, 2018-03-11)"
   sodipodi:docname="Pad.svg">
  <defs
     id="defs2" />
  <sodipodi:namedview
     id="base"
     pagecolor="#262626"
     bordercolor="#666666"
     borderopacity="1.0"
     inkscape:pageopacity="0"
     inkscape:pageshadow="2"
     inkscape:zoom="1.0913458"
     inkscape:cx="-64.717374"
     inkscape:cy="182.88005"
     inkscape:document-units="mm"
     inkscape:current-layer="layer1"
     showgrid="false"
     inkscape:window-width="1366"
     inkscape:window-height="718"
     inkscape:window-x="0"
     inkscape:window-y="0"
     inkscape:window-maximized="1" />
  <metadata
     id="metadata5">
    <rdf:RDF>
      <cc:Work
         rdf:about="">
        <dc:format>image/svg+xml</dc:format>
        <dc:type
           rdf:resource="http://purl.org/dc/dcmitype/StillImage" />
        <dc:title />
      </cc:Work>
    </rdf:RDF>
  </metadata>
  <g
     inkscape:label="Capa 1"
     inkscape:groupmode="layer"
     id="layer1"
     transform="translate(0,-233)">
    <circle
       style="opacity:1;fill:#ffffff;fill-opacity:0.1254902;fill-rule:nonzero;stroke:#ffffff;stroke-width:1;stroke-linejoin:round;stroke-miterlimit:4;stroke-dasharray:none;stroke-opacity:0.49803922;paint-order:normal"
       id="path815"
       cx="32"
       cy="265"
       r="30" />
    <path
       style="opacity:1;fill:#ffffff;fill-opacity:0.25098041;fill-rule:nonzero;stroke:#ffffff;stroke-width:3.77952766;stroke-linejoin:round;stroke-miterlimit:4;stroke-dasharray:none;stroke-opacity:0.49803922;paint-order:normal"
       d="m 102.16406,21.15625 c -6.281579,0 -11.337888,5.058259 -11.337888,11.339844 0,0 5.748531,36.581547 -8,50.330078 -13.748531,13.748531 -50.330078,8 -50.330078,8 -6.281585,0 -11.339844,5.056309 -11.339844,11.337888 v 37.56055 c 0,6.28158 5.058259,11.33984 11.339844,11.33984 0,0 36.581547,-5.74853 50.330078,8 13.748532,13.74853 8,50.33008 8,50.33008 0,6.28159 5.056309,11.33789 11.337888,11.33789 h 37.56055 c 6.28158,0 11.33984,-5.0563 11.33984,-11.33789 0,0 -5.74853,-36.58155 8,-50.33008 13.74853,-13.74853 50.33008,-8 50.33008,-8 6.28159,0 11.33789,-5.05826 11.33789,-11.33984 v -37.56055 c 0,-6.281579 -5.0563,-11.337888 -11.33789,-11.337888 0,0 -36.58155,5.748532 -50.33008,-8 -13.74853,-13.748531 -8,-50.330078 -8,-50.330078 0,-6.281585 -5.05826,-11.339844 -11.33984,-11.339844 z m 18.78125,78.92969 c 11.52021,2.5e-4 20.85913,9.33916 20.85938,20.85937 -2.5e-4,11.52022 -9.33916,20.85913 -20.85938,20.85938 -11.52021,-2.5e-4 -20.85912,-9.33917 -20.85937,-20.85938 2.5e-4,-11.52021 9.33916,-20.85912 20.85937,-20.85937 z"
       transform="matrix(0.26458333,0,0,0.26458333,0,233)"
       id="rect817"
       inkscape:connector-curvature="0"
       sodipodi:nodetypes="sssssssssssssssssssssccccc" />
    <path
       sodipodi:type="star"
       style="opacity:1;fill:#ffffff;fill-opacity:0.25098041;fill-rule:nonzero;stroke:#ffffff;stroke-width:1;stroke-linejoin:round;stroke-miterlimit:4;stroke-dasharray:none;stroke-opacity:0.49803922;paint-order:normal"
       id="path825"
       sodipodi:sides="3"
       sodipodi:cx="47.296635"
       sodipodi:cy="249.86591"
       sodipodi:r1="4.2258158"
       sodipodi:r2="2.1979902"
       sodipodi:arg1="1.5707964"
       sodipodi:arg2="2.8518632"
       inkscape:flatsided="false"
       inkscape:rounded="0"
       inkscape:randomized="0"
       d="m 47.296634,254.09172 -2.10638,-3.59786 -1.553283,-2.74086 4.169033,-0.0252 3.150295,0.0252 -2.062653,3.62311 z"
       inkscape:transform-center-x="-0.011315112"
       inkscape:transform-center-y="-0.46882976"
       transform="matrix(0.95759805,-0.23756857,0.23516648,0.96737938,-55.679376,18.0588)" />
    <path
       transform="matrix(-0.95759805,0.23756857,-0.23516648,-0.96737938,119.67937,511.94121)"
       inkscape:transform-center-y="0.46882525"
       inkscape:transform-center-x="0.011319295"
       d="m 47.296634,254.09172 -2.10638,-3.59786 -1.553283,-2.74086 4.169033,-0.0252 3.150295,0.0252 -2.062653,3.62311 z"
       inkscape:randomized="0"
       inkscape:rounded="0"
       inkscape:flatsided="false"
       sodipodi:arg2="2.8518632"
       sodipodi:arg1="1.5707964"
       sodipodi:r2="2.1979902"
       sodipodi:r1="4.2258158"
       sodipodi:cy="249.86591"
       sodipodi:cx="47.296635"
       sodipodi:sides="3"
       id="path833"
       style="opacity:1;fill:#ffffff;fill-opacity:0.25098041;fill-rule:nonzero;stroke:#ffffff;stroke-width:1;stroke-linejoin:round;stroke-miterlimit:4;stroke-dasharray:none;stroke-opacity:0.49803922;paint-order:normal"
       sodipodi:type="star" />
    <path
       transform="matrix(-0.23756857,-0.95759805,0.96737938,-0.23516648,-214.94121,352.67937)"
       inkscape:transform-center-y="-0.011317961"
       inkscape:transform-center-x="0.46883109"
       d="m 47.296634,254.09172 -2.10638,-3.59786 -1.553283,-2.74086 4.169033,-0.0252 3.150295,0.0252 -2.062653,3.62311 z"
       inkscape:randomized="0"
       inkscape:rounded="0"
       inkscape:flatsided="false"
       sodipodi:arg2="2.8518632"
       sodipodi:arg1="1.5707964"
       sodipodi:r2="2.1979902"
       sodipodi:r1="4.2258158"
       sodipodi:cy="249.86591"
       sodipodi:cx="47.296635"
       sodipodi:sides="3"
       id="path835"
       style="opacity:1;fill:#ffffff;fill-opacity:0.25098041;fill-rule:nonzero;stroke:#ffffff;stroke-width:1;stroke-linejoin:round;stroke-miterlimit:4;stroke-dasharray:none;stroke-opacity:0.49803922;paint-order:normal"
       sodipodi:type="star" />
    <path
       sodipodi:type="star"
       style="opacity:1;fill:#ffffff;fill-opacity:0.25098041;fill-rule:nonzero;stroke:#ffffff;stroke-width:1;stroke-linejoin:round;stroke-miterlimit:4;stroke-dasharray:none;stroke-opacity:0.49803922;paint-order:normal"
       id="path837"
       sodipodi:sides="3"
       sodipodi:cx="47.296635"
       sodipodi:cy="249.86591"
       sodipodi:r1="4.2258158"
       sodipodi:r2="2.1979902"
       sodipodi:arg1="1.5707964"
       sodipodi:arg2="2.8518632"
       inkscape:flatsided="false"
       inkscape:rounded="0"
       inkscape:randomized="0"
       d="m 47.296634,254.09172 -2.10638,-3.59786 -1.553283,-2.74086 4.169033,-0.0252 3.150295,0.0252 -2.062653,3.62311 z"
       inkscape:transform-center-x="-0.46882392"
       inkscape:transform-center-y="0.011323446"
       transform="matrix(0.23756857,0.95759805,-0.96737938,0.23516648,278.94121,177.32063)" />
  </g>
</svg>
