[gd_resource type="DynamicFont" load_steps=3 format=2]

[ext_resource path="res://RelightedEngine/Ttf/house-a-rama-kingpin.ttf" type="DynamicFontData" id=1]

[sub_resource type="GDScript" id=1]
script/source = "extends DynamicFont

#Si quisieramos mismo size de texto en cada resolucion
#const FACTORS = [12, 6, 4, 3]
#queremos mas grande en poca resolucion
const FACTORS = [14, 6.8, 4.7]

const fontsize = 4.5

func _init():
	var factor = FACTORS[SettingsData.data.resolution]
	var win_factor = OS.window_size.x / OS.get_screen_size().x
	size = fontsize * factor * win_factor
	outline_size = .6 * factor * win_factor

#func _get_property_list():
#	_init()
#	return []
"

[resource]
size = 18
outline_size = 2
outline_color = Color( 0, 0, 0.333333, 1 )
font_data = ExtResource( 1 )
script = SubResource( 1 )
