[gd_scene load_steps=5 format=2]

[ext_resource path="res://RelightedEngine/Scenes/Menu/ResetRequired.gd" type="Script" id=1]
[ext_resource path="res://RelightedEngine/Scenes/Menu/Play/Fondo-normal.png" type="Texture" id=2]
[ext_resource path="res://RelightedEngine/Scenes/Menu/Play/Fondo.png" type="Texture" id=3]

[sub_resource type="Animation" id=1]
resource_name = "bg"
length = 5.0
loop = true
tracks/0/type = "value"
tracks/0/path = NodePath("MenuBackground:region_rect")
tracks/0/interp = 1
tracks/0/loop_wrap = true
tracks/0/imported = false
tracks/0/enabled = true
tracks/0/keys = {
"times": PoolRealArray( 0, 5 ),
"transitions": PoolRealArray( 1, 1 ),
"update": 0,
"values": [ Rect2( 0, 0, 1920, 1080 ), Rect2( 203, -5, 1920, 1080 ) ]
}

[node name="ResetRequired" type="Node2D"]
script = ExtResource( 1 )

[node name="BackgroundAnimator" type="AnimationPlayer" parent="."]
autoplay = "bg"
playback_speed = 0.25
anims/bg = SubResource( 1 )

[node name="MenuBackground" type="Sprite" parent="."]
position = Vector2( -90, -50 )
scale = Vector2( 1.04688, 1.0463 )
texture = ExtResource( 3 )
normal_map = ExtResource( 2 )
centered = false
region_enabled = true
region_rect = Rect2( 0, 0, 1920, 1080 )
