[gd_resource type="ParticlesMaterial" load_steps=7 format=2]

[sub_resource type="Gradient" id=1]
offsets = PoolRealArray( 0, 0.106007, 0.339223, 0.551237, 0.766784, 1 )
colors = PoolColorArray( 1, 1, 1, 1, 1, 0.9375, 0, 1, 1, 0, 0, 0.588235, 0.145215, 0.145215, 0.145215, 0.569412, 0.09834, 0.09834, 0.09834, 0.541176, 0, 0, 0, 0 )

[sub_resource type="GradientTexture" id=2]
gradient = SubResource( 1 )

[sub_resource type="Curve" id=3]
min_value = -10.0
max_value = 2.0
_data = [ Vector2( 0, 2 ), 0.0, -14.7638, 0, 0, Vector2( 1, -7.775 ), -30.7766, 0.0, 0, 0 ]

[sub_resource type="CurveTexture" id=4]
curve = SubResource( 3 )

[sub_resource type="Curve" id=5]
_data = [ Vector2( 0, 0.455373 ), 0.0, 0.0, 0, 0, Vector2( 1, 1 ), 0.0, 0.0, 0, 0 ]

[sub_resource type="CurveTexture" id=6]
curve = SubResource( 5 )

[resource]
spread = 180.0
gravity = Vector3( 0, 0, 0 )
initial_velocity = 0.1
angular_velocity = 720.0
angular_velocity_random = 0.19
linear_accel_curve = SubResource( 4 )
angle = 134.2
angle_random = 1.0
scale = 0.25
scale_curve = SubResource( 6 )
color_ramp = SubResource( 2 )
